<svg xmlns="http://www.w3.org/2000/svg" width="27" height="19" viewBox="0 0 27 19">
  <metadata><?xpacket begin="﻿" id="W5M0MpCehiHzreSzNTczkc9d"?>
<x:xmpmeta xmlns:x="adobe:ns:meta/" x:xmptk="Adobe XMP Core 5.6-c138 79.159824, 2016/09/14-01:09:01        ">
   <rdf:RDF xmlns:rdf="http://www.w3.org/1999/02/22-rdf-syntax-ns#">
      <rdf:Description rdf:about=""/>
   </rdf:RDF>
</x:xmpmeta>
                                                                                                    
                                                                                                    
                                                                                                    
                                                                                                    
                                                                                                    
                                                                                                    
                                                                                                    
                                                                                                    
                                                                                                    
                                                                                                    
                                                                                                    
                                                                                                    
                                                                                                    
                                                                                                    
                                                                                                    
                                                                                                    
                                                                                                    
                                                                                                    
                                                                                                    
                                                                                                    
                           
<?xpacket end="w"?></metadata>
<defs>
    <style>
      .cls-1 {
        fill: #003f72;
        fill-rule: evenodd;
      }
    </style>
  </defs>
  <path class="cls-1" d="M7.637,8.426c0.48-.847.921-1.7,1.437-2.506a1.254,1.254,0,0,0,.12-1.37,1.423,1.423,0,0,1-.059-0.159A2.031,2.031,0,0,1,6.885,3.334a0.582,0.582,0,0,1-.077-0.646,0.566,0.566,0,0,1,.56-0.3c1.277,0,2.553,0,3.83,0a0.556,0.556,0,0,1,.621.491,0.579,0.579,0,0,1-.478.62c-0.4.128-.8,0.268-1.224,0.411,0.1,0.315.183,0.607,0.292,0.888a0.293,0.293,0,0,0,.223.076c1.447,0,2.895,0,4.342,0h3.492c-0.011-.07-0.015-0.128-0.03-0.182-0.142-.516-0.289-1.031-0.429-1.548a0.552,0.552,0,0,1,.521-0.762,1.117,1.117,0,0,0,.344-0.077,0.478,0.478,0,0,0,.3-0.471,0.473,0.473,0,0,0-.293-0.473,1.081,1.081,0,0,0-.387-0.079c-0.5-.009-1.009,0-1.514,0A0.552,0.552,0,0,1,16.366.733,0.551,0.551,0,0,1,16.973.18c0.549,0,1.1-.011,1.648,0a1.63,1.63,0,0,1,1.581,1.3A1.64,1.64,0,0,1,19.29,3.34c-0.026.013-.052,0.028-0.1,0.056l1.29,4.615a5.156,5.156,0,0,1,4.349,1.172,5.3,5.3,0,0,1,1.869,3.28,5.542,5.542,0,0,1-3.7,6.289,5.3,5.3,0,0,1-6.448-3.08,5.632,5.632,0,0,1,2.9-7.365L19.15,7.253c-0.067.062-.118,0.1-0.162,0.15Q16.5,10.086,14,12.767a0.337,0.337,0,0,0-.086.362,1.382,1.382,0,0,1-.776,1.6A1.292,1.292,0,0,1,11.5,14.2a0.306,0.306,0,0,0-.331-0.188,4.231,4.231,0,0,1-.433,0A5.5,5.5,0,0,1,7.75,18.42a4.976,4.976,0,0,1-4.126.248A5.588,5.588,0,0,1,.391,11.55,5.3,5.3,0,0,1,7.637,8.426ZM20.862,9.372c0.012,0.049.021,0.086,0.031,0.122,0.342,1.223.686,2.445,1.023,3.67a1.06,1.06,0,0,1,.045.4,0.525,0.525,0,0,1-.5.442,0.54,0.54,0,0,1-.538-0.429C20.7,12.822,20.5,12.063,20.284,11.3q-0.227-.813-0.457-1.627a4.17,4.17,0,0,0-2.184,5.1,3.977,3.977,0,0,0,4.922,2.665,4.164,4.164,0,0,0,2.762-4.989A3.976,3.976,0,0,0,20.862,9.372ZM9.364,14.01H9.123c-1.195,0-2.39,0-3.585,0a0.6,0.6,0,0,1-.591-0.282,0.631,0.631,0,0,1,.064-0.67q0.912-1.595,1.814-3.2c0.04-.07.075-0.144,0.112-0.216a3.838,3.838,0,0,0-4.283.8,4.257,4.257,0,0,0-.8,4.93,3.967,3.967,0,0,0,4.385,2.14A4.088,4.088,0,0,0,9.364,14.01ZM10.789,6c0.019,0.066.03,0.1,0.041,0.137q0.929,2.889,1.859,5.778a0.3,0.3,0,0,0,.528.11L18.66,6.16c0.042-.045.078-0.1,0.131-0.165h-8Zm-2.231,3A5.647,5.647,0,0,1,10.732,12.9c0.158,0,.306-0.01.452,0a0.261,0.261,0,0,0,.311-0.181,0.355,0.355,0,0,1,.1-0.148,0.283,0.283,0,0,0,.063-0.362q-0.861-2.649-1.71-5.3C9.931,6.847,9.9,6.782,9.865,6.681Zm-0.681,1.2-1.527,2.7H9.376A4.2,4.2,0,0,0,7.876,10.193Z"/>
</svg>
