<svg xmlns="http://www.w3.org/2000/svg" width="10.06" height="14" viewBox="0 0 10.06 14">
  <path id="Arrow" class="cls-1" d="M2011.69,2787.99l-5.36-4.57a1.063,1.063,0,0,1,0-1.67l0.49-.42a1.55,1.55,0,0,1,1.95,0l6.31,5.39c0.01,0.01.03,0.01,0.04,0.02l0.48,0.41a1.065,1.065,0,0,1,0,1.68l-0.48.41c-0.01.01-.03,0.01-0.04,0.02l-6.31,5.38a1.525,1.525,0,0,1-1.95,0l-0.49-.41a1.063,1.063,0,0,1,0-1.67Z" transform="translate(-2005.94 -2781)" fill="#003f72"/>
</svg>
