<svg xmlns="http://www.w3.org/2000/svg" width="21.41" height="14.25" viewBox="0 0 21.41 14.25">
  <metadata><?xpacket begin="﻿" id="W5M0MpCehiHzreSzNTczkc9d"?>
<x:xmpmeta xmlns:x="adobe:ns:meta/" x:xmptk="Adobe XMP Core 5.6-c138 79.159824, 2016/09/14-01:09:01        ">
   <rdf:RDF xmlns:rdf="http://www.w3.org/1999/02/22-rdf-syntax-ns#">
      <rdf:Description rdf:about=""/>
   </rdf:RDF>
</x:xmpmeta>
                                                                                                    
                                                                                                    
                                                                                                    
                                                                                                    
                                                                                                    
                                                                                                    
                                                                                                    
                                                                                                    
                                                                                                    
                                                                                                    
                                                                                                    
                                                                                                    
                                                                                                    
                                                                                                    
                                                                                                    
                                                                                                    
                                                                                                    
                                                                                                    
                                                                                                    
                                                                                                    
                           
<?xpacket end="w"?></metadata>
<defs>
    <style>
      .cls-1 {
        fill: #fff;
        fill-rule: evenodd;
        opacity: 0.5;
      }
    </style>
  </defs>
  <path id="Envelope" class="cls-1" d="M1625.02,99.341c0.37,0,.34-0.033.34,0.324v10.363c0,0.358.03,0.972-.34,0.972h-17.36a1.356,1.356,0,0,1-1-.972V99.665c0-.357.63-0.324,1-0.324h17.03m0.33-1.3h-17.36c-1.11,0-2.34.546-2.34,1.619v10.363a2.581,2.581,0,0,0,2.34,2.267h17.36c1.11,0,1.67-1.193,1.67-2.267V99.665a1.458,1.458,0,0,0-1.67-1.619h0Zm-9.01,9.776a0.683,0.683,0,0,1-.44-0.158l-10.02-7.773a0.635,0.635,0,0,1-.07-0.914,0.68,0.68,0,0,1,.94-0.066l9.59,7.4,9.58-7.4a0.68,0.68,0,0,1,.94.066,0.635,0.635,0,0,1-.07.914l-10.02,7.773A0.657,0.657,0,0,1,1616.01,107.822Z" transform="translate(-1605.31 -98.031)"/>
</svg>
