<svg xmlns="http://www.w3.org/2000/svg" xmlns:xlink="http://www.w3.org/1999/xlink" width="34" height="21" viewBox="0 0 34 21">
  <metadata><?xpacket begin="﻿" id="W5M0MpCehiHzreSzNTczkc9d"?>
<x:xmpmeta xmlns:x="adobe:ns:meta/" x:xmptk="Adobe XMP Core 5.6-c138 79.159824, 2016/09/14-01:09:01        ">
   <rdf:RDF xmlns:rdf="http://www.w3.org/1999/02/22-rdf-syntax-ns#">
      <rdf:Description rdf:about=""/>
   </rdf:RDF>
</x:xmpmeta>
                                                                                                    
                                                                                                    
                                                                                                    
                                                                                                    
                                                                                                    
                                                                                                    
                                                                                                    
                                                                                                    
                                                                                                    
                                                                                                    
                                                                                                    
                                                                                                    
                                                                                                    
                                                                                                    
                                                                                                    
                                                                                                    
                                                                                                    
                                                                                                    
                                                                                                    
                                                                                                    
                           
<?xpacket end="w"?></metadata>
<defs>
    <style>
      .cls-1 {
        fill: #fff;
        stroke: #fbfbfb;
        stroke-linejoin: round;
        stroke-width: 1px;
        fill-rule: evenodd;
        filter: url(#filter);
      }
    </style>
    <filter id="filter" x="1962" y="1163" width="35" height="22" filterUnits="userSpaceOnUse">
      <feFlood result="flood" flood-color="#fff" flood-opacity="0.78"/>
      <feComposite result="composite" operator="in" in2="SourceGraphic"/>
      <feBlend result="blend" in2="SourceGraphic"/>
    </filter>
  </defs>
  <g transform="translate(-1962.5 -1163.5)" style="fill: #fff; filter: url(#filter)">
    <path id="arrow_copy_4" data-name="arrow copy 4" class="cls-1" d="M1993.73,1179.51a0.888,0.888,0,0,1,.26.62,0.865,0.865,0,0,1-.26.61,0.906,0.906,0,0,1-1.26,0l-12.97-12.64-12.97,12.64a0.906,0.906,0,0,1-1.26,0,0.852,0.852,0,0,1,0-1.23l13.6-13.25a0.906,0.906,0,0,1,1.26,0Z" style="stroke: inherit; filter: none; fill: inherit"/>
  </g>
  <use transform="translate(-1962.5 -1163.5)" xlink:href="#arrow_copy_4" style="stroke: #fbfbfb; filter: none; fill: none"/>
</svg>
